\babel@toc {spanish}{}\relax 
\contentsline {section}{\numberline {1}Ejercicio 5}{3}{section.1}%
\contentsline {section}{\numberline {2}Ejercicio 6}{4}{section.2}%
\contentsline {section}{\numberline {3}Ejercicio 7}{5}{section.3}%
\contentsline {section}{\numberline {4}Derechos de Autor y Licencia}{8}{section.4}%
