\babel@toc {spanish}{}\relax 
\contentsline {section}{\numberline {1}Acceso a Monitor de Recursos}{3}{section.1}%
\contentsline {section}{\numberline {2}Gráficas de Rendimiento}{4}{section.2}%
\contentsline {section}{\numberline {3}Monitor de Recursos}{5}{section.3}%
\contentsline {section}{\numberline {4}Derechos de Autor y Licencia}{6}{section.4}%
