\babel@toc {spanish}{}\relax 
\contentsline {section}{\numberline {1}Introducción}{3}{section.1}%
\contentsline {section}{\numberline {2}Instalación}{3}{section.2}%
\contentsline {subsection}{\numberline {2.1}Dependencias}{3}{subsection.2.1}%
\contentsline {subsection}{\numberline {2.2}Instalación de MantisBT}{5}{subsection.2.2}%
\contentsline {section}{\numberline {3}Configuración}{7}{section.3}%
\contentsline {section}{\numberline {4}Creación y Manejo de Tareas}{8}{section.4}%
\contentsline {section}{\numberline {5}Conclusión}{10}{section.5}%
\contentsline {section}{\numberline {6}Derechos de Autor y Licencia}{12}{section.6}%
