\babel@toc {spanish}{}
\contentsline {section}{\numberline {1}Hoja De Control Del Documento}{3}{}%
\contentsline {section}{\numberline {2}Resumen Ejecutivo}{4}{}%
\contentsline {section}{\numberline {3}Configuración de Redes Inalámbricas}{5}{}%
\contentsline {section}{\numberline {4}Definición de Direcciones IP}{6}{}%
\contentsline {section}{\numberline {5}Enrutamiento Dinámico}{7}{}%
\contentsline {section}{\numberline {6}Enrutamiento Estático}{7}{}%
\contentsline {section}{\numberline {7}Configuración de un Servidor Web y DNS}{9}{}%
\contentsline {section}{\numberline {8}Derechos de Autor y Licencia}{10}{}%
