\babel@toc {spanish}{}\relax 
\contentsline {section}{\numberline {1}Hoja De Control Del Documento}{3}{section.1}%
\contentsline {section}{\numberline {2}Jerarquía del Espacio de Nombres}{4}{section.2}%
\contentsline {section}{\numberline {3}Derechos de Autor y Licencia}{8}{section.3}%
