\babel@toc {spanish}{}
\beamer@sectionintoc {1}{Teoría}{3}{0}{1}
\beamer@subsectionintoc {1}{1}{Instalación}{3}{0}{1}
\beamer@subsectionintoc {1}{2}{Gestión de Usuarios}{5}{0}{1}
\beamer@sectionintoc {2}{Etherpad}{7}{0}{2}
\beamer@sectionintoc {3}{Fin}{8}{0}{3}
