\babel@toc {spanish}{}\relax 
\contentsline {section}{\numberline {1}Racks}{3}{section.1}%
\contentsline {section}{\numberline {2}Switches}{3}{section.2}%
\contentsline {section}{\numberline {3}Conductos}{3}{section.3}%
\contentsline {section}{\numberline {4}Rosetas}{4}{section.4}%
\contentsline {section}{\numberline {5}Cajas de Registro}{4}{section.5}%
\contentsline {section}{\numberline {6}Cables de Red}{4}{section.6}%
\contentsline {section}{\numberline {7}Derechos de Autor y Licencia}{5}{section.7}%
