\babel@toc {spanish}{}
\beamer@sectionintoc {1}{Instalación}{3}{0}{1}
\beamer@sectionintoc {2}{Funcionalidades}{7}{0}{2}
\beamer@sectionintoc {3}{Ventajas/Desventajas}{11}{0}{3}
\beamer@sectionintoc {4}{Conclusión}{13}{0}{4}
\beamer@sectionintoc {5}{Fin}{14}{0}{5}
