\babel@toc {spanish}{}\relax 
\contentsline {section}{\numberline {1}Análisis de la Obra}{3}{section.1}%
\contentsline {section}{\numberline {2}Cálculo de Costes}{4}{section.2}%
\contentsline {section}{\numberline {3}Derechos de Autor y Licencia}{5}{section.3}%
