\babel@toc {spanish}{}
\contentsline {table}{\numberline {1}{\ignorespaces Tabla de direcciones IP.\relax }}{3}{table.caption.5}%
\contentsline {table}{\numberline {2}{\ignorespaces Tabla de particiones lógicas en los sistemas Debian.\relax }}{4}{table.caption.6}%
