\babel@toc {spanish}{}
\contentsline {section}{\numberline {1}Introducción}{2}{section.1}%
\contentsline {section}{\numberline {2}Funcionalidad}{2}{section.2}%
\contentsline {section}{\numberline {3}Comparativa}{3}{section.3}%
\contentsline {section}{\numberline {4}Uso en Windows Server 2019}{4}{section.4}%
\contentsline {section}{\numberline {5}Usos}{4}{section.5}%
\contentsline {section}{\numberline {6}Derechos de Autor y Licencia}{5}{section.6}%
