\babel@toc {spanish}{}\relax 
\contentsline {section}{\numberline {1}Introducción}{3}{section.1}%
\contentsline {section}{\numberline {2}Configuración}{3}{section.2}%
\contentsline {subsection}{\numberline {2.1}El Router}{3}{subsection.2.1}%
\contentsline {subsection}{\numberline {2.2}Los Switches}{4}{subsection.2.2}%
\contentsline {subsection}{\numberline {2.3}Red INF}{5}{subsection.2.3}%
\contentsline {subsection}{\numberline {2.4}Servidor DHCP General}{6}{subsection.2.4}%
\contentsline {section}{\numberline {3}Pruebas}{8}{section.3}%
\contentsline {section}{\numberline {4}Derechos de Autor y Licencia}{9}{section.4}%
