\babel@toc {spanish}{}
\contentsline {section}{\numberline {1}Hoja De Control Del Documento}{3}{section.1}%
\contentsline {section}{\numberline {2}Instalación de Docker}{4}{section.2}%
\contentsline {section}{\numberline {3}Primer Contenedor: Hello World}{4}{section.3}%
\contentsline {section}{\numberline {4}Contenedor de Servidor Apache}{6}{section.4}%
\contentsline {section}{\numberline {5}Conclusión}{7}{section.5}%
\contentsline {section}{\numberline {6}Derechos de Autor y Licencia}{9}{section.6}%
