\babel@toc {spanish}{}
\contentsline {section}{\numberline {1}Hoja De Control Del Documento}{3}{}%
\contentsline {section}{\numberline {2}¿Qué es la Virtualización?}{4}{}%
\contentsline {section}{\numberline {3}Virtualización No-Nativa}{4}{}%
\contentsline {section}{\numberline {4}Virtualización Nativa}{5}{}%
\contentsline {section}{\numberline {5}Virtualización de Programa}{5}{}%
\contentsline {section}{\numberline {6}Contenedores}{6}{}%
\contentsline {section}{\numberline {7}Conclusión}{6}{}%
\contentsline {section}{\numberline {8}Derechos de Autor y Licencia}{7}{}%
