\babel@toc {spanish}{}
\contentsline {section}{\numberline {1}Hoja De Control Del Documento}{3}{}%
\contentsline {section}{\numberline {2}Resumen Ejecutivo}{4}{}%
\contentsline {section}{\numberline {3}Configuración de Redes Inalámbricas}{4}{}%
\contentsline {section}{\numberline {4}Definición de Direcciones IP}{6}{}%
\contentsline {section}{\numberline {5}Enrutamiento Estático}{6}{}%
\contentsline {section}{\numberline {6}Configuración de un Servidor Web y DNS}{7}{}%
\contentsline {section}{\numberline {7}Derechos de Autor y Licencia}{10}{}%
