\babel@toc {spanish}{}\relax 
\contentsline {section}{\numberline {1}Resumen Ejecutivo}{3}{section.1}%
\contentsline {section}{\numberline {2}División en Subredes}{3}{section.2}%
\contentsline {section}{\numberline {3}Derechos de Autor y Licencia}{4}{section.3}%
