\babel@toc {spanish}{}
\contentsline {section}{\numberline {1}Búsqueda de la Máquina en Red}{2}{section.1}%
\contentsline {section}{\numberline {2}Análisis de la Máquina}{3}{section.2}%
\contentsline {section}{\numberline {3}Ataque}{4}{section.3}%
\contentsline {subsection}{\numberline {3.1}vsftpd}{4}{subsection.3.1}%
\contentsline {subsection}{\numberline {3.2}UnrealIRCd}{5}{subsection.3.2}%
\contentsline {section}{\numberline {4}Derechos de Autor y Licencia}{6}{section.4}%
