\babel@toc {spanish}{}\relax 
\contentsline {section}{\numberline {1}Resumen Ejecutivo}{3}{section.1}%
\contentsline {section}{\numberline {2}Configuración}{3}{section.2}%
\contentsline {subsection}{\numberline {2.1}Switches}{3}{subsection.2.1}%
\contentsline {subsection}{\numberline {2.2}Servidores}{4}{subsection.2.2}%
\contentsline {subsubsection}{\numberline {2.2.1}Servidor DHCP}{4}{subsubsection.2.2.1}%
\contentsline {subsubsection}{\numberline {2.2.2}Servidor DNS}{5}{subsubsection.2.2.2}%
\contentsline {subsubsection}{\numberline {2.2.3}Servidor HTTP}{6}{subsubsection.2.2.3}%
\contentsline {subsection}{\numberline {2.3}Router}{7}{subsection.2.3}%
\contentsline {subsection}{\numberline {2.4}Terminales}{7}{subsection.2.4}%
\contentsline {section}{\numberline {3}Prueba}{8}{section.3}%
\contentsline {section}{\numberline {4}Derechos de Autor y Licencia}{9}{section.4}%
