\babel@toc {spanish}{}\relax 
\contentsline {section}{\numberline {1}Mapa Conceptual}{3}{section.1}%
\contentsline {section}{\numberline {2}¿Qué Es Un Documento Técnico?}{3}{section.2}%
\contentsline {section}{\numberline {3}¿Cómo Se Elabora?}{3}{section.3}%
\contentsline {subsection}{\numberline {3.1}Ideación}{4}{subsection.3.1}%
\contentsline {subsection}{\numberline {3.2}Preparación}{4}{subsection.3.2}%
\contentsline {subsection}{\numberline {3.3}Escritura}{5}{subsection.3.3}%
\contentsline {section}{\numberline {4}¿Cómo Se Ha De Formatear?}{5}{section.4}%
\contentsline {section}{\numberline {5}Conclusión}{6}{section.5}%
\contentsline {section}{\numberline {6}Derechos de Autor y Licencia}{7}{section.6}%
