\babel@toc {spanish}{}\relax 
\contentsline {section}{\numberline {1}Introducción}{3}{section.1}%
\contentsline {section}{\numberline {2}GNU Privacy Guard (GPG)}{3}{section.2}%
\contentsline {subsection}{\numberline {2.1}Cifrado}{3}{subsection.2.1}%
\contentsline {subsection}{\numberline {2.2}Descifrado}{4}{subsection.2.2}%
\contentsline {section}{\numberline {3}Conclusión}{5}{section.3}%
\contentsline {section}{\numberline {4}Derechos de Autor y Licencia}{6}{section.4}%
