\babel@toc {spanish}{}
\contentsline {section}{\numberline {1}Introducción}{2}{section.1}%
\contentsline {section}{\numberline {2}Orígenes}{2}{section.2}%
\contentsline {section}{\numberline {3}Versiones}{2}{section.3}%
\contentsline {section}{\numberline {4}Derechos de Autor y Licencia}{4}{section.4}%
