\babel@toc {spanish}{}\relax 
\contentsline {section}{\numberline {1}Hoja De Control Del Documento}{3}{section.1}%
\contentsline {section}{\numberline {2}Resumen Ejecutivo}{4}{section.2}%
\contentsline {section}{\numberline {3}Introducción}{4}{section.3}%
\contentsline {section}{\numberline {4}Configuración SAI}{4}{section.4}%
\contentsline {section}{\numberline {5}Derechos de Autor y Licencia}{7}{section.5}%
