\babel@toc {spanish}{}\relax 
\contentsline {section}{\numberline {1}Hoja De Control Del Documento}{3}{section.1}%
\contentsline {section}{\numberline {2}Comparación de Raspberry Pi y BeagleBone}{4}{section.2}%
\contentsline {section}{\numberline {3}Derechos de Autor y Licencia}{5}{section.3}%
