\babel@toc {spanish}{}
\contentsline {section}{\numberline {1}Hoja De Control Del Documento}{3}{}%
\contentsline {section}{\numberline {2}Creación de Archivos y Directorios}{4}{}%
\contentsline {section}{\numberline {3}Mover, Copiar, y Renombrar}{5}{}%
\contentsline {section}{\numberline {4}Borrando Archivos y Directorios}{5}{}%
\contentsline {section}{\numberline {5}Modificando los Atributos de un Archivo}{6}{}%
\contentsline {section}{\numberline {6}Conclusión}{6}{}%
\contentsline {section}{\numberline {7}Derechos de Autor y Licencia}{7}{}%
