\babel@toc {spanish}{}\relax 
\contentsline {section}{\numberline {1}RedDot}{3}{section.1}%
\contentsline {section}{\numberline {2}Allaire Spectra}{3}{section.2}%
\contentsline {section}{\numberline {3}TYPO3}{3}{section.3}%
\contentsline {section}{\numberline {4}Mambo}{3}{section.4}%
\contentsline {section}{\numberline {5}Php-Nuke}{3}{section.5}%
\contentsline {section}{\numberline {6}CMS Made Simple}{3}{section.6}%
\contentsline {section}{\numberline {7}Plone}{4}{section.7}%
\contentsline {section}{\numberline {8}WordPress}{4}{section.8}%
\contentsline {section}{\numberline {9}Blogger}{4}{section.9}%
\contentsline {section}{\numberline {10}Expression Engine}{4}{section.10}%
\contentsline {section}{\numberline {11}Magento}{4}{section.11}%
\contentsline {section}{\numberline {12}Prestashop}{4}{section.12}%
\contentsline {section}{\numberline {13}osCommerce}{5}{section.13}%
\contentsline {section}{\numberline {14}OpenCart}{5}{section.14}%
\contentsline {section}{\numberline {15}MediaWiki}{5}{section.15}%
\contentsline {section}{\numberline {16}DokuWiki}{5}{section.16}%
\contentsline {section}{\numberline {17}TikiWiki}{5}{section.17}%
\contentsline {section}{\numberline {18}phpBB}{6}{section.18}%
\contentsline {section}{\numberline {19}Simple Machines Forum}{6}{section.19}%
\contentsline {section}{\numberline {20}vBulletin}{6}{section.20}%
\contentsline {section}{\numberline {21}Discuz!}{6}{section.21}%
\contentsline {section}{\numberline {22}Moodle}{6}{section.22}%
\contentsline {section}{\numberline {23}Dokeos}{6}{section.23}%
\contentsline {section}{\numberline {24}Canvas}{7}{section.24}%
\contentsline {section}{\numberline {25}Blackboard}{7}{section.25}%
\contentsline {section}{\numberline {26}Open edX}{7}{section.26}%
\contentsline {section}{\numberline {27}Alfresco}{7}{section.27}%
\contentsline {section}{\numberline {28}Nuxeo}{7}{section.28}%
\contentsline {section}{\numberline {29}Menalto Gallery}{7}{section.29}%
\contentsline {section}{\numberline {30}Derechos de Autor y Licencia}{8}{section.30}%
