\babel@toc {spanish}{}
\contentsline {section}{\numberline {1}Hoja De Control Del Documento}{3}{}%
\contentsline {section}{\numberline {2}Administración de Usuarios}{4}{}%
\contentsline {section}{\numberline {3}Administración de Grupos}{5}{}%
\contentsline {section}{\numberline {4}Permisos}{6}{}%
\contentsline {section}{\numberline {5}Conclusión}{8}{}%
\contentsline {section}{\numberline {6}Derechos de Autor y Licencia}{9}{}%
