\babel@toc {spanish}{}\relax 
\contentsline {section}{\numberline {1}Introducción}{3}{section.1}%
\contentsline {section}{\numberline {2}Filtrando Eventos}{4}{section.2}%
\contentsline {section}{\numberline {3}Programación de Tareas}{6}{section.3}%
\contentsline {section}{\numberline {4}Suscripciones}{8}{section.4}%
\contentsline {section}{\numberline {5}Derechos de Autor y Licencia}{10}{section.5}%
