\babel@toc {spanish}{}\relax 
\contentsline {section}{\numberline {1}Comparación GDDR vs. HBM}{3}{section.1}%
\contentsline {section}{\numberline {2}Comparación ATI vs. NVidia}{3}{section.2}%
\contentsline {section}{\numberline {3}Derechos de Autor y Licencia}{4}{section.3}%
