\babel@toc {spanish}{}\relax 
\contentsline {section}{\numberline {1}Introducción}{3}{section.1}%
\contentsline {section}{\numberline {2}Descarga}{3}{section.2}%
\contentsline {section}{\numberline {3}Creando una Imagen de Respaldo}{4}{section.3}%
\contentsline {subsection}{\numberline {3.1}Configuración Inicial}{4}{subsection.3.1}%
\contentsline {subsection}{\numberline {3.2}Selección de Dispositivos}{4}{subsection.3.2}%
\contentsline {section}{\numberline {4}Restauración del Sistema}{6}{section.4}%
\contentsline {section}{\numberline {5}Conclusión}{7}{section.5}%
\contentsline {section}{\numberline {6}Derechos de Autor y Licencia}{9}{section.6}%
