\babel@toc {spanish}{}\relax 
\contentsline {section}{\numberline {1}Introducción}{3}{section.1}%
\contentsline {section}{\numberline {2}Cifrado con LUKS}{3}{section.2}%
\contentsline {subsection}{\numberline {2.1}Creación del Dispositivo Cifrado}{3}{subsection.2.1}%
\contentsline {subsection}{\numberline {2.2}Abrir el Dispositivo Cifrado y Formatear}{4}{subsection.2.2}%
\contentsline {section}{\numberline {3}Conclusión}{5}{section.3}%
\contentsline {section}{\numberline {4}Derechos de Autor y Licencia}{6}{section.4}%
