\babel@toc {spanish}{}
\contentsline {section}{\numberline {1}Hoja De Control Del Documento}{3}{}%
\contentsline {section}{\numberline {2}Objetivo}{4}{}%
\contentsline {section}{\numberline {3}Instalación de VMWare}{4}{}%
\contentsline {section}{\numberline {4}Creación de la Máquina Virtual}{4}{}%
\contentsline {section}{\numberline {5}Conclusión}{5}{}%
\contentsline {section}{\numberline {6}Derechos de Autor y Licencia}{7}{}%
