\babel@toc {spanish}{}\relax 
\contentsline {section}{\numberline {1}Definición del Conflicto}{3}{section.1}%
\contentsline {section}{\numberline {2}Factores Relevantes}{3}{section.2}%
\contentsline {section}{\numberline {3}Factores Externos e Internos}{3}{section.3}%
\contentsline {section}{\numberline {4}Tipo de Conflicto}{4}{section.4}%
\contentsline {section}{\numberline {5}Posibles Resoluciones}{5}{section.5}%
\contentsline {section}{\numberline {6}Conclusión}{5}{section.6}%
\contentsline {section}{\numberline {7}Derechos de Autor y Licencia}{6}{section.7}%
