\babel@toc {spanish}{}
\contentsline {section}{\numberline {1}Hoja De Control Del Documento}{3}{section.1}%
\contentsline {section}{\numberline {2}Resumen Ejecutivo}{4}{section.2}%
\contentsline {section}{\numberline {3}Máscaras}{4}{section.3}%
\contentsline {section}{\numberline {4}Derechos de Autor y Licencia}{6}{section.4}%
