\babel@toc {spanish}{}\relax 
\contentsline {section}{\numberline {1}Introducción}{2}{section.1}%
\contentsline {section}{\numberline {2}Ejercicio I: Imagen Aleatoria}{2}{section.2}%
\contentsline {section}{\numberline {3}Ejercicio II}{3}{section.3}%
\contentsline {section}{\numberline {4}Conclusión}{5}{section.4}%
\contentsline {section}{\numberline {5}Derechos de Autor y Licencia}{6}{section.5}%
