\babel@toc {spanish}{}
\contentsline {section}{\numberline {1}Hoja De Control Del Documento}{3}{}%
\contentsline {section}{\numberline {2}Creación de una Máquina Virtual}{4}{}%
\contentsline {section}{\numberline {3}Creación de una Imagen OVA}{5}{}%
\contentsline {section}{\numberline {4}Instalación de MAME}{6}{}%
\contentsline {section}{\numberline {5}Derechos de Autor y Licencia}{8}{}%
