\babel@toc {spanish}{}\relax 
\contentsline {section}{\numberline {1}¿Qué Es Popplet?}{2}{section.1}%
\contentsline {section}{\numberline {2}Uso De Ejemplo}{3}{section.2}%
\contentsline {section}{\numberline {3}Conclusión}{3}{section.3}%
\contentsline {section}{\numberline {4}Derechos de Autor y Licencia}{4}{section.4}%
