\babel@toc {spanish}{}\relax 
\contentsline {section}{\numberline {1}Resumen Ejecutivo}{3}{section.1}%
\contentsline {section}{\numberline {2}Configuración}{3}{section.2}%
\contentsline {subsection}{\numberline {2.1}Switches}{3}{subsection.2.1}%
\contentsline {subsubsection}{\numberline {2.1.1}VLANs}{3}{subsubsection.2.1.1}%
\contentsline {subsubsection}{\numberline {2.1.2}DHCP}{5}{subsubsection.2.1.2}%
\contentsline {subsection}{\numberline {2.2}Router}{5}{subsection.2.2}%
\contentsline {subsection}{\numberline {2.3}Direcciones Estáticas}{6}{subsection.2.3}%
\contentsline {section}{\numberline {3}Conclusión}{6}{section.3}%
\contentsline {section}{\numberline {4}Derechos de Autor y Licencia}{7}{section.4}%
