\babel@toc {spanish}{}
\contentsline {section}{\numberline {1}Hoja De Control Del Documento}{3}{}%
\contentsline {section}{\numberline {2}Listado de Archivos}{4}{}%
\contentsline {section}{\numberline {3}Navegación}{4}{}%
\contentsline {section}{\numberline {4}Sistema de Archivos Windows}{5}{}%
\contentsline {section}{\numberline {5}Variables de Entorno}{7}{}%
\contentsline {section}{\numberline {6}Historial del {\em Shell}}{7}{}%
\contentsline {section}{\numberline {7}Derechos de Autor y Licencia}{8}{}%
