\babel@toc {spanish}{}\relax 
\contentsline {section}{\numberline {1}Introducción}{2}{section.1}%
\contentsline {section}{\numberline {2}Instalación}{2}{section.2}%
\contentsline {section}{\numberline {3}Uso y Configuración}{3}{section.3}%
\contentsline {section}{\numberline {4}Modificación de Contenidos}{4}{section.4}%
\contentsline {section}{\numberline {5}Conclusión}{4}{section.5}%
\contentsline {section}{\numberline {6}Derechos de Autor y Licencia}{5}{section.6}%
