\babel@toc {spanish}{}\relax 
\contentsline {section}{\numberline {1}Configuración de Red}{3}{section.1}%
\contentsline {section}{\numberline {2}Instalación de Active Directory}{4}{section.2}%
\contentsline {section}{\numberline {3}Configuración de Active Directory}{5}{section.3}%
\contentsline {section}{\numberline {4}Conclusión}{9}{section.4}%
\contentsline {section}{\numberline {5}Derechos de Autor y Licencia}{10}{section.5}%
