\babel@toc {spanish}{}\relax 
\contentsline {section}{\numberline {1}Introducción}{3}{section.1}%
\contentsline {section}{\numberline {2}Adquisición de Recursos}{3}{section.2}%
\contentsline {section}{\numberline {3}Configuración e Instalación}{4}{section.3}%
\contentsline {subsection}{\numberline {3.1}Arranque de la Máquina Virtual}{4}{subsection.3.1}%
\contentsline {subsection}{\numberline {3.2}Configuración}{5}{subsection.3.2}%
\contentsline {subsection}{\numberline {3.3}Instalación}{7}{subsection.3.3}%
\contentsline {section}{\numberline {4}Conclusión}{8}{section.4}%
\contentsline {section}{\numberline {5}Derechos de Autor y Licencia}{9}{section.5}%
