\babel@toc {spanish}{}\relax 
\contentsline {section}{\numberline {1}Utilidad de un Dispositivo de Copia de Seguridad}{3}{section.1}%
\contentsline {section}{\numberline {2}Almacenamiento USB (Simple)}{3}{section.2}%
\contentsline {section}{\numberline {3}Disco Duro Externo}{4}{section.3}%
\contentsline {section}{\numberline {4}Servidores NAS}{4}{section.4}%
\contentsline {section}{\numberline {5}Cinta Magnética}{5}{section.5}%
\contentsline {section}{\numberline {6}Derechos de Autor y Licencia}{6}{section.6}%
