\babel@toc {spanish}{}
\contentsline {section}{\numberline {1}Hoja De Control Del Documento}{3}{section.1}%
\contentsline {section}{\numberline {2}¿Qué es Bitlocker?}{4}{section.2}%
\contentsline {section}{\numberline {3}Cifrado de un Pendrive}{4}{section.3}%
\contentsline {section}{\numberline {4}Abriendo un Pendrive Cifrado}{7}{section.4}%
\contentsline {section}{\numberline {5}Desactivando Bitlocker}{7}{section.5}%
\contentsline {section}{\numberline {6}Conclusión}{8}{section.6}%
\contentsline {section}{\numberline {7}Derechos de Autor y Licencia}{9}{section.7}%
